…
dealer_price_long = read_csv(file = "https://raw.githubusercontent.com/keatonwilson/beans/master/data/dealer_price_long.csv")

## Parsed with column specification:
## cols(
##   date = col_date(format = ""),
##   Class = col_character(),
##   Price = col_double()
## )

dealer_price_long 

## Warning in format.POSIXlt(as.POSIXlt(x), ...): unknown timezone 'zone/tz/
## 2018c.1.0/zoneinfo/America/Phoenix'

## # A tibble: 23,984 x 3
##    date       Class Price
##    <date>     <chr> <dbl>
##  1 1981-01-06 Pinto  32.0
##  2 1981-01-13 Pinto  32.8
##  3 1981-01-20 Pinto  35.5
##  4 1981-01-27 Pinto  35.2
##  5 1981-02-03 Pinto  35.2
##  6 1981-02-10 Pinto  34.8
##  7 1981-02-18 Pinto  35.0
##  8 1981-02-24 Pinto  35.0
##  9 1981-03-03 Pinto  34.2
## 10 1981-03-10 Pinto  34.2
## # ... with 23,974 more rows
…
